{
  "AUTHOR_EMAIL":"email@michael.vu",
  "AUTHOR_FULLNAME":"Michael Vu",
  "CARTON_MIRROR_HOSTNAME":"cpan.metacpan.org",
  "CARTON_MIRROR_PASSWORD":"",
  "CARTON_MIRROR_URL":"http://cpan.metacpan.org",
  "CARTON_MIRROR_USERNAME":"",
  "COPYRIGHT_HOLDER_EMAIL":"email@michael.vu",
  "COPYRIGHT_HOLDER_FULLNAME":"Michael Vu",
  "DNS_SERVER":"8.8.8.8",
  "DOCKER_IMAGE":"perl:5.22.1-threaded",
  "EXPOSE_PORTS_WITH_COMMA_DELIMITED":"",
  "INITIAL_VERSION":"1.2",
  "INSTALL_LOCAL_TUNNEL":"no",
  "INSTALL_PADRE":"no",
  "INSTALL_PHANTOMJS":"no",
  "INSTALL_RPERL":"no",
  "INSTALL_UWSGI":"no",
  "LD_LIBRARY_PATH":"",
  "LICENSE":"None",
  "PACKAGE_NAME":"Dancer::Plugin::BeforeRoute",
  "PINTO_USERNAME":"MVU",
  "PROJECT_DESCRIPTION":"Before hook for individual route",
  "PROJECT_NAME":"Dancer-Plugin-BeforeRoute",
  "TEXT_EDITOR":"vim",
  "TODAY":"2016-7-10"
}